{
  "data": [
    {
      "label": "Create & Manage Projects",
      "data": "Create_&_Manage_Projects",
      "expandedIcon": "pi pi-lock-open",
      "collapsedIcon": "pi pi-lock",
      "children": [
        {
          "label": "Create or Import Models",
          "data": "Create_or_Import_Models",
          "expandedIcon": "pi pi-lock-open",
          "collapsedIcon": "pi pi-lock",
          "children": []
        },
        {
          "label": "Edit Only Models",
          "data": "Edit_Only_Models",
          "expandedIcon": "pi pi-lock-open",
          "collapsedIcon": "pi pi-lock",
          "children": []
        },
        {
          "label": "Modify Models",
          "data": "Modify_Models",
          "expandedIcon": "pi pi-lock-open",
          "collapsedIcon": "pi pi-lock",
          "children": []
        },
        {
          "label": "Assign Model Threats",
          "data": "Assign_Model_Threats",
          "expandedIcon": "pi pi-lock-open",
          "collapsedIcon": "pi pi-lock",
          "children": []
        },
        {
          "label": "Download Project report",
          "data": "Download_Project_report",
          "expandedIcon": "pi pi-lock-open",
          "collapsedIcon": "pi pi-lock",
          "children": []
        },
        {
          "label": "Download model report",
          "data": "Download_model_report",
          "expandedIcon": "pi pi-lock-open",
          "collapsedIcon": "pi pi-lock",
          "children": []
        },
        {
          "label": "Export Project",
          "data": "Export_Project",
          "expandedIcon": "pi pi-lock-open",
          "collapsedIcon": "pi pi-lock",
          "children": []
        },
        {
          "label": "Export Models",
          "data": "Export_Models",
          "expandedIcon": "pi pi-lock-open",
          "collapsedIcon": "pi pi-lock",
          "children": []
        },
        {
          "label": "Delete Models",
          "data": "Delete_Models",
          "expandedIcon": "pi pi-lock-open",
          "collapsedIcon": "pi pi-lock",
          "children": []
        }
      ]
    },
    {
      "label": "View Assigned Projects",
      "data": "View_Assigned_Projects",
      "expandedIcon": "pi pi-lock-open",
      "collapsedIcon": "pi pi-lock",
      "children": [
        {
          "label": "Create or Import Models",
          "data": "Create_or_Import_Models",
          "expandedIcon": "pi pi-lock-open",
          "collapsedIcon": "pi pi-lock",
          "children": []
        },
        {
          "label": "Edit Only Models",
          "data": "Edit_Only_Models",
          "expandedIcon": "pi pi-lock-open",
          "collapsedIcon": "pi pi-lock",
          "children": []
        },
        {
          "label": "Modify Models",
          "data": "Modify_Models",
          "expandedIcon": "pi pi-lock-open",
          "collapsedIcon": "pi pi-lock",
          "children": []
        },
        {
          "label": "Assign Model Threats",
          "data": "Assign_Model_Threats",
          "expandedIcon": "pi pi-lock-open",
          "collapsedIcon": "pi pi-lock",
          "children": []
        },
        {
          "label": "Download Project report",
          "data": "Download_Project_report",
          "expandedIcon": "pi pi-lock-open",
          "collapsedIcon": "pi pi-lock",
          "children": []
        },
        {
          "label": "Download model report",
          "data": "Download_model_report",
          "expandedIcon": "pi pi-lock-open",
          "collapsedIcon": "pi pi-lock",
          "children": []
        },
        {
          "label": "Export Project",
          "data": "Export_Project",
          "expandedIcon": "pi pi-lock-open",
          "collapsedIcon": "pi pi-lock",
          "children": []
        },
        {
          "label": "Export Models",
          "data": "Export_Models",
          "expandedIcon": "pi pi-lock-open",
          "collapsedIcon": "pi pi-lock",
          "children": []
        },
        {
          "label": "Delete Models",
          "data": "Delete_Models",
          "expandedIcon": "pi pi-lock-open",
          "collapsedIcon": "pi pi-lock",
          "children": []
        }
      ]
    },
    {
      "label": "View All Projects",
      "data": "View_All_Projects",
      "expandedIcon": "pi pi-lock-open",
      "collapsedIcon": "pi pi-lock",
      "children": []
    },
    {
      "label": "View Templates",
      "data": "View_Templates",
      "expandedIcon": "pi pi-lock-open",
      "collapsedIcon": "pi pi-lock",
      "children": [
        {
          "label": "Create Template",
          "data": "Create_Template",
          "expandedIcon": "pi pi-lock-open",
          "collapsedIcon": "pi pi-lock",
          "children": []
        },
        {
          "label": "Edit Template",
          "data": "Edit_Template",
          "expandedIcon": "pi pi-lock-open",
          "collapsedIcon": "pi pi-lock",
          "children": []
        },
        {
          "label": "Delete Template",
          "data": "Delete_Template",
          "expandedIcon": "pi pi-lock-open",
          "collapsedIcon": "pi pi-lock",
          "children": []
        }
      ]
    },
    {
      "label": "View Components",
      "data": "View_Components",
      "expandedIcon": "pi pi-lock-open",
      "collapsedIcon": "pi pi-lock",
      "children": [
        {
          "label": "Create Components",
          "data": "Create_Components",
          "expandedIcon": "pi pi-lock-open",
          "collapsedIcon": "pi pi-lock",
          "children": []
        },
        {
          "label": "Edit Components",
          "data": "Edit_Components",
          "expandedIcon": "pi pi-lock-open",
          "collapsedIcon": "pi pi-lock",
          "children": []
        },
        {
          "label": "Delete Components",
          "data": "Delete_Components",
          "expandedIcon": "pi pi-lock-open",
          "collapsedIcon": "pi pi-lock",
          "children": []
        }
      ]
    },
    {
      "label": "View Threats",
      "data": "View_Threats",
      "expandedIcon": "pi pi-lock-open",
      "collapsedIcon": "pi pi-lock",
      "children": [
        {
          "label": "Create Threats",
          "data": "Create_Threats",
          "expandedIcon": "pi pi-lock-open",
          "collapsedIcon": "pi pi-lock",
          "children": []
        },
        {
          "label": "Edit Threats",
          "data": "Edit_Threats",
          "expandedIcon": "pi pi-lock-open",
          "collapsedIcon": "pi pi-lock",
          "children": []
        },
        {
          "label": "Delete Threats",
          "data": "Delete_Threats",
          "expandedIcon": "pi pi-lock-open",
          "collapsedIcon": "pi pi-lock",
          "children": []
        }
      ]
    },
    {
      "label": "View Role",
      "data": "View_Role",
      "expandedIcon": "pi pi-lock-open",
      "collapsedIcon": "pi pi-lock",
      "children": [
        {
          "label": "Create Roles",
          "data": "Create_Roles",
          "expandedIcon": "pi pi-lock-open",
          "collapsedIcon": "pi pi-lock",
          "children": []
        },
        {
          "label": "Edit Role Permissions",
          "data": "Edit_Role_Permissions",
          "expandedIcon": "pi pi-lock-open",
          "collapsedIcon": "pi pi-lock",
          "children": []
        },
        {
          "label": "Delete Role",
          "data": "Delete_Role",
          "expandedIcon": "pi pi-lock-open",
          "collapsedIcon": "pi pi-lock",
          "children": []
        }
      ]
    },
    {
      "label": "View Users",
      "data": "View_Users",
      "expandedIcon": "pi pi-lock-open",
      "collapsedIcon": "pi pi-lock",
      "children": [
        {
          "label": "Create Users",
          "data": "Create_Users",
          "expandedIcon": "pi pi-lock-open",
          "collapsedIcon": "pi pi-lock",
          "children": []
        },
        {
          "label": "Edit Users",
          "data": "Edit_Users",
          "expandedIcon": "pi pi-lock-open",
          "collapsedIcon": "pi pi-lock",
          "children": []
        },
        {
          "label": "Delete Users",
          "data": "Delete_Users",
          "expandedIcon": "pi pi-lock-open",
          "collapsedIcon": "pi pi-lock",
          "children": []
        }
      ]
    },
    {
      "label": "View Tickets",
      "data": "View_Tickets",
      "expandedIcon": "pi pi-lock-open",
      "collapsedIcon": "pi pi-lock",
      "children": [
        {
          "label": "Reassign Tickets",
          "data": "Reassign_Tickets",
          "expandedIcon": "pi pi-lock-open",
          "collapsedIcon": "pi pi-lock",
          "children": []
        },
        {
          "label": "Edit Ticket",
          "data": "Edit_Ticket",
          "expandedIcon": "pi pi-lock-open",
          "collapsedIcon": "pi pi-lock",
          "children": []
        },
        {
          "label": "Delete Ticket",
          "data": "Delete_Ticket",
          "expandedIcon": "pi pi-lock-open",
          "collapsedIcon": "pi pi-lock",
          "children": []
        },
        {
          "label": "Verify Ticket",
          "data": "Verify_Ticket",
          "expandedIcon": "pi pi-lock-open",
          "collapsedIcon": "pi pi-lock",
          "children": []
        },
        {
          "label": "Close Ticket",
          "data": "Close_Ticket",
          "expandedIcon": "pi pi-lock-open",
          "collapsedIcon": "pi pi-lock",
          "children": []
        },
        {
          "label": "Reply Ticket",
          "data": "Reply_Ticket",
          "expandedIcon": "pi pi-lock-open",
          "collapsedIcon": "pi pi-lock",
          "children": []
        }
      ]
    },
    {
      "label": "View Configurations",
      "data": "View_Configurations",
      "expandedIcon": "pi pi-lock-open",
      "collapsedIcon": "pi pi-lock",
      "children": [
        {
          "label": "Modify Configurations",
          "data": "Modify_Configurations",
          "expandedIcon": "pi pi-lock-open",
          "collapsedIcon": "pi pi-lock",
          "children": []
        }
      ]
    }
  ]
}
